name,sport,league,country,website,twitter_url,twitter_joined,facebook_url,instagram_url,flickr_url,google_plus,youtube_url,yt_joined,linkedin_url,wikipedia_url,stadium,stadium_capacity
London Welsh,RUGUN,Championship,en,http://www.london-welsh.co.uk/,https://twitter.com/LondonWelshRFC,,https://www.facebook.com/pages/London-Welsh-RFC/220334235416,,,,http://www.youtube.com/user/londonwelshtv?feature=results_main,,http://uk.linkedin.com/pub/london-welsh-rugby-club/51/447/470,http://en.wikipedia.org/wiki/London_Welsh,Kassam Stadium,12500
Cardiff Blues,RUGUN,Pro12,gb,http://www.cardiffblues.com/,https://twitter.com/cardiff_blues,,https://www.facebook.com/pages/Cardiff-United-Kingdom/Cardiff-Blues/6061429999?v=info,,,,,,,http://en.wikipedia.org/wiki/Cardiff_Blues,Cardiff Arms Park,12500
Munster,RUGUN,Pro12,ie,http://www.munsterrugby.ie/,https://twitter.com/Munsterrugby,,https://www.facebook.com/MRSC16,,,,,,,http://en.wikipedia.org/wiki/Munster_Rugby,Thomond Park,25600
Leinster,RUGUN,Pro12,ie,http://www.leinsterrugby.ie/,https://twitter.com/leinsterrugby,,https://www.facebook.com/leinsterrugby,,,,,,,http://en.wikipedia.org/wiki/Leinster_Rugby,RDS Arena,18500
Edinburgh,RUGUN,Pro12,sco,http://www.edinburghrugby.org/,https://twitter.com/EdinburghRugby,,https://www.facebook.com/EdinburghRugby,,,,,,,http://en.wikipedia.org/wiki/Edinburgh_Rugby,Murrayfield Stadium,67130
Scarlets,RUGUN,Pro12,gb,http://www.scarlets.co.uk/,https://twitter.com/scarlets_rugby,,https://www.facebook.com/OfficialScarlets,,,,,,,http://en.wikipedia.org/wiki/Scarlets,Parc y Scarlets,14870
Ulster,RUGUN,Pro12,ie,http://www.ulsterrugby.com/,https://twitter.com/ulsterrugby,,https://www.facebook.com/ulsterrugby,,,,,,,http://en.wikipedia.org/wiki/Ulster_Rugby,Ravenhill,12300
Connacht,RUGUN,Pro12,ie,http://www.connachtrugby.ie/,https://twitter.com/connachtrugby,,https://www.facebook.com/Connachtrugby,,,,,,,http://en.wikipedia.org/wiki/Connacht_Rugby,Galway Sportsground,7500
Benetton Treviso,RUGUN,Pro12,it,http://www.benettonrugby.it/,https://twitter.com/BenettonRugby,,https://www.facebook.com/pages/edit/?id=136357639722290#!/pages/Benetton-Rugby/136357639722290?v=wall,,,,http://www.youtube.com/BenettonRugby,,,http://en.wikipedia.org/wiki/Benetton_Rugby_Treviso,Stadio Comunale di Monigo,6700
Ospreys,RUGUN,Pro12,gb,http://www.ospreysrugby.com/,https://twitter.com/ospreys,,https://www.facebook.com/ospreysrugby,,,,http://www.youtube.com/user/OspreysHighlights,,,http://en.wikipedia.org/wiki/Ospreys_Rugby,Liberty Stadium,20750
Glasgow,RUGUN,Pro12,sco,http://www.glasgowwarriors.org/,https://twitter.com/GlasgowWarriors,,https://www.facebook.com/pages/Glasgow-Warriors-Rugby/175500162479722#!/pages/Glasgow-Warriors-Rugby/175500162479722,,,,http://www.youtube.com/glasgowwarriors,,,http://en.wikipedia.org/wiki/Glasgow_Rugby,Scotstoun Stadium,9708
Zebre,RUGUN,Pro12,fr,http://www.zebrerugby.com/,https://twitter.com/ZebreRugby,,https://www.facebook.com/ZebreRugby,,,https://plus.google.com/112345251131051101081,,,,http://en.wikipedia.org/wiki/Zebre,Stadio XXV Aprile,3500
NG Dragons,RUGUN,Pro12,gb,http://www.newportgwentdragons.com/,https://twitter.com/dragonsrugby,,https://www.facebook.com/newportgwentdragons,,,,,,,http://en.wikipedia.org/wiki/Newport_Gwent_Dragons,Rodney Parade,11676
Nottingham,RUGUN,Championship,en,http://www.nottinghamrugby.co.uk/,https://twitter.com/NottinghamRugby,,,,,,,,,,,
Cornish Pirates,RUGUN,Championship,en,http://www.cornish-pirates.com/,https://twitter.com/CornishPirates1,,,,,,,,,,,
Bedford,RUGUN,Championship,en,http://www.bedfordrugby.co.uk/,https://twitter.com/BedfordBluesRFC,,,,,,,,,,,
Yorkshire Carnegie,RUGUN,Championship,en,http://www.yorkshirecarnegie.com/,https://twitter.com/carnegierugby,01/12/09,,,,,,,,,,
London Scottish,RUGUN,Championship,en,http://londonscottish.com,https://twitter.com/LSFCOfficial,,,,,,,,,,,
Bristol,RUGUN,Championship,en,http://www.bristolrugby.co.uk/,https://twitter.com/Bristol_RFC,01/01/2011,https://www.facebook.com/pages/Bristol-Rugby-Club/144086662180,http://instagram.com/official_bristolrugby,https://www.flickr.com/photos/125979053@N02/,,http://www.youtube.com/user/BristolRugbyClub1,,,,,
Rotherham Titans,RUGUN,Championship,en,http://rotherhamrugby.co.uk ,https://twitter.com/RotherhamRugby,01/07/2010,,,,,,,,,,
Doncaster,RUGUN,Championship,en,http://www.drfc.co.uk/,https://twitter.com/DoncasterKnight,01/06/09,https://www.facebook.com/doncasterknights,,,,https://www.youtube.com/channel/UCchSX-GbYZIEHhU85XbLyXg,,,,,
Jersey,RUGUN,Championship,en,http://www.jrfc.je/,https://twitter.com/jerseyrfc,01/10/10,https://www.facebook.com/JerseyRFC/,,,,,,,,,
Ealing Trailfinders,RUGUN,Championship,en,http://www.ealingtrailfinders1stxv.com/,https://twitter.com/ealingtfrugby,01/05/10,https://www.facebook.com/ealingtrailfinders,,,,,,https://www.linkedin.com/company/ealing-rugby-football-club,https://en.wikipedia.org/wiki/Ealing_Trailfinders_Rugby_Club,,
Moseley,RUGUN,Championship,en,http://www.moseleyrugby.co.uk/,https://twitter.com/MoseleyRugbyFC,01/01/11,https://www.facebook.com/moseleyrugbyclub,,,,,,,https://en.wikipedia.org/wiki/Moseley_Rugby_Football_Club,Billesley Common,1300
Hartpury College ,RUGUN,SSE National League Division One,en,http://www.hartpury.ac.uk/sport/hartpury-rfc/,https://twitter.com/HartpuryRFC,01/08/12,,,,,,,,,,
Ampthill ,RUGUN,SSE National League Division One,en,http://www.ampthillrufc.com/,https://twitter.com/AmpthillRufc,01/09/13,,,,,,,,,,
Blackheath ,RUGUN,SSE National League Division One,en,http://blackheathrugby.co.uk/,https://twitter.com/blackheathrugby,01/10/08,,,,,,,,,,
Esher ,RUGUN,SSE National League Division One,en,http://www.esherrugby.com/,https://twitter.com/esherrugby,01/01/10,https://www.facebook.com/likeesherrugby,,,,,,,,,
Coventry ,RUGUN,SSE National League Division One,en,http://www.coventryrfc.co.uk/,https://twitter.com/CoventryRugby,01/02/12,,,,,,,,,,
Richmond ,RUGUN,SSE National League Division One,en,http://richmondfc.co.uk/,https://twitter.com/RichmondFC1861,01/08/10,https://www.facebook.com/RichmondRugbyClub,https://instagram.com/Richmondrugby/,,https://plus.google.com/111114029379331811362,https://www.youtube.com/user/RichmondRugbyFC,,https://www.linkedin.com/groups/4789527/profile,https://en.wikipedia.org/wiki/Richmond_F.C.,Athletic Ground,4500
Rosslyn Park ,RUGUN,SSE National League Division One,en,http://rosslynpark.co.uk/,https://twitter.com/rosslynpark,01/12/09,https://www.facebook.com/Rosslyn-Park-238033273688/,,,,,,,,,
Hull Ionians ,RUGUN,SSE National League Division One,en,http://www.pitchero.com/clubs/hullionians,https://twitter.com/Ioniansrufc,01/08/12,https://www.facebook.com/hullionians,,,,,,,,,
Henley ,RUGUN,SSE National League Division One,en,,,,,,,,,,,,,
Fylde ,RUGUN,SSE National League Division One,en,,,,,,,,,,,,,
Wharfedale ,RUGUN,SSE National League Division One,en,,,,,,,,,,,,,
Plymouth Albion ,RUGUN,SSE National League Division One,en,,,,,,,,,,,,,
Loughborough Students ,RUGUN,SSE National League Division One,en,,,,,,,,,,,,,
Cinderford ,RUGUN,SSE National League Division One,en,,,,,,,,,,,,,
Darlington Mowden Park ,RUGUN,SSE National League Division One,en,,,,,,,,,,,,,
Blaydon ,RUGUN,SSE National League Division Two North,en,,,,,,,,,,,,,
Sedgley Park ,RUGUN,SSE National League Division Two North,en,http://www.pitchero.com/clubs/sedgleyparktigers,https://twitter.com/sedgleytigers,01/12/09,https://www.facebook.com/SedgleyTigersRufc,,,,,,,https://en.wikipedia.org/wiki/Sedgley_Park_R.U.F.C.,,
Macclesfield ,RUGUN,SSE National League Division Two North,en,,,,,,,,,,,,,
Caldy ,RUGUN,SSE National League Division Two North,en,,,,,,,,,,,,,
Sandal ,RUGUN,SSE National League Division Two North,en,,,,,,,,,,,,,
Leicester Lions ,RUGUN,SSE National League Division Two North,en,,,,,,,,,,,,,
Chester ,RUGUN,SSE National League Division Two North,en,,,,,,,,,,,,,
Harrogate ,RUGUN,SSE National League Division Two North,en,,,,,,,,,,,,,
Otley ,RUGUN,SSE National League Division Two North,en,,,,,,,,,,,,,
Stourbridge ,RUGUN,SSE National League Division Two North,en,,,,,,,,,,,,,
South Leicester ,RUGUN,SSE National League Division Two North,en,,,,,,,,,,,,,
Sale ,RUGUN,SSE National League Division Two North,en,,,,,,,,,,,,,
Preston Grasshoppers ,RUGUN,SSE National League Division Two North,en,,,,,,,,,,,,,
Huddersfield ,RUGUN,SSE National League Division Two North,en,,,,,,,,,,,,,
Tynedale ,RUGUN,SSE National League Division Two North,en,,,,,,,,,,,,,
Broadstreet ,RUGUN,SSE National League Division Two North,en,,,,,,,,,,,,,
Luctonians ,RUGUN,SSE National League Division Two North,en,,,,,,,,,,,,,
Taunton Titans ,RUGUN,SSE National League Division Two South,en,,,,,,,,,,,,,
Clifton ,RUGUN,SSE National League Division Two South,en,,,,,,,,,,,,,
Cambridge ,RUGUN,SSE National League Division Two South,en,,,,,,,,,,,,,
Old Albanians ,RUGUN,SSE National League Division Two South,en,,,,,,,,,,,,,
Bishop's Stortford ,RUGUN,SSE National League Division Two South,en,,,,,,,,,,,,,
Redruth ,RUGUN,SSE National League Division Two South,en,,,,,,,,,,,,,
Old Elthamians ,RUGUN,SSE National League Division Two South,en,,,,,,,,,,,,,
Southend ,RUGUN,SSE National League Division Two South,en,,,,,,,,,,,,,
Worthing ,RUGUN,SSE National League Division Two South,en,,,,,,,,,,,,,
Canterbury ,RUGUN,SSE National League Division Two South,en,,,,,,,,,,,,,
Barnes ,RUGUN,SSE National League Division Two South,en,,,,,,,,,,,,,
Bury St Edmunds ,RUGUN,SSE National League Division Two South,en,,,,,,,,,,,,,
Dorking ,RUGUN,SSE National League Division Two South,en,,,,,,,,,,,,,
Redingensians ,RUGUN,SSE National League Division Two South,en,,,,,,,,,,,,,
Chinnor ,RUGUN,SSE National League Division Two South,en,,,,,,,,,,,,,
Launceston ,RUGUN,SSE National League Division Two South,en,,,,,,,,,,,,,
Heriot's ,RUGUN,RBS Premier Division,sco,http://heriotsrugbyclub.co.uk,https://twitter.com/HeriotsRugby,01/07/2012,,,,,,,,,,
Ayr ,RUGUN,RBS Premier Division,sco,http://www.ayrrugbyclub.co.uk/,https://twitter.com/OfficialAyrRFC,01/02/12,,,,,,,,https://en.wikipedia.org/wiki/Ayr_RFC,,
Melrose ,RUGUN,RBS Premier Division,sco,melroserugby.bordernet.co.uk ,https://twitter.com/MelroseRugby,01/09/11,,,,,,,,https://en.wikipedia.org/wiki/Melrose_RFC,,
Boroughmuir ,RUGUN,RBS Premier Division,sco,http://boroughmuirsports.co.uk,https://twitter.com/BmuirSports,01/08/2012,,,,,,,,,,
Currie ,RUGUN,RBS Premier Division,sco,http://www.currierugby.org/,,,,,,,,,,https://en.wikipedia.org/wiki/Currie_RFC,,
Hawick ,RUGUN,RBS Premier Division,sco,http://hawickrfc.co.uk,https://twitter.com/HawickRFC,01/08/2013,,,,,,,,,,
Gala ,RUGUN,RBS Premier Division,sco,http://galarfc.com,https://twitter.com/GalaRFC,01/09/2012,,,,,,,,,,
Glasgow Hawks ,RUGUN,RBS Premier Division,sco,http://glasgowhawks.com,https://twitter.com/GlasgowHawks1,01/05/2011,,,,,,,,,,
Stirling County ,RUGUN,RBS Premier Division,sco,http://stirlingcounty-rfc.co.uk ,https://twitter.com/StirlingCounty,,,,,,,,,,,
Selkirk ,RUGUN,RBS Premier Division,sco,http://selkirkrfc.com/,https://twitter.com/SelkirkRFCInfo,,,,,,,,,,,
Marr ,RUGUN,RBS National One,sco,http://www.marrrugby.com/,https://twitter.com/MarrRugby,,,,,,,,,,,
Watsonians ,RUGUN,RBS National One,sco,http://www.watsoniansrugby.com/,https://twitter.com/WATSONIANFC,,https://www.facebook.com/Watsonian-Football-Club-133741179991271/,,,,,,,,,
Musselburgh ,RUGUN,RBS National One,sco,https://www.musselburghrfc.com/,https://twitter.com/MusselburghRFC,,,,,,,,,,,
GHA ,RUGUN,RBS National One,sco,,,,,,,,,,,,,
Aberdeen Grammar ,RUGUN,RBS National One,sco,,,,,,,,,,,,,
Howe of Fife ,RUGUN,RBS National One,sco,,,,,,,,,,,,,
Dundee HSFP ,RUGUN,RBS National One,sco,,,,,,,,,,,,,
Edinburgh Acads ,RUGUN,RBS National One,sco,,,,,,,,,,,,,
Stewart's Melville FP ,RUGUN,RBS National One,sco,,,,,,,,,,,,,
Jed-Forest ,RUGUN,RBS National One,sco,,,,,,,,,,,,,
Kelso ,RUGUN,RBS National One,sco,,,,,,,,,,,,,
Peebles ,RUGUN,RBS National One,sco,,,,,,,,,,,,,
Hamilton ,RUGUN,RBS National Two,sco,,,,,,,,,,,,,
Aberdeenshire ,RUGUN,RBS National Two,sco,,,,,,,,,,,,,
Cartha Q P ,RUGUN,RBS National Two,sco,,,,,,,,,,,,,
Falkirk ,RUGUN,RBS National Two,sco,,,,,,,,,,,,,
Lasswade ,RUGUN,RBS National Two,sco,,,,,,,,,,,,,
Preston Lodge FP ,RUGUN,RBS National Two,sco,,,,,,,,,,,,,
Hillhead Jordanhill ,RUGUN,RBS National Two,sco,,,,,,,,,,,,,
Whitecraigs ,RUGUN,RBS National Two,sco,,,,,,,,,,,,,
Biggar ,RUGUN,RBS National Two,sco,,,,,,,,,,,,,
Kirkcaldy ,RUGUN,RBS National Two,sco,,,,,,,,,,,,,
Ardrossan Acads ,RUGUN,RBS National Two,sco,,,,,,,,,,,,,
Greenock Wanderers ,RUGUN,RBS National Two,sco,,,,,,,,,,,,,
Dumfries ,RUGUN,RBS National Three,sco,,,,,,,,,,,,,
GHK ,RUGUN,RBS National Three,sco,,,,,,,,,,,,,
Perthshire ,RUGUN,RBS National Three,sco,,,,,,,,,,,,,
Orkney ,RUGUN,RBS National Three,sco,,,,,,,,,,,,,
Haddington ,RUGUN,RBS National Three,sco,,,,,,,,,,,,,
West of Scotland ,RUGUN,RBS National Three,sco,,,,,,,,,,,,,
East Kilbride ,RUGUN,RBS National Three,sco,,,,,,,,,,,,,
RHC ,RUGUN,RBS National Three,sco,,,,,,,,,,,,,
Livingston ,RUGUN,RBS National Three,sco,,,,,,,,,,,,,
Berwick ,RUGUN,RBS National Three,sco,,,,,,,,,,,,,
Irvine ,RUGUN,RBS National Three,sco,,,,,,,,,,,,,
Dalziel ,RUGUN,RBS National Three,sco,,,,,,,,,,,,,
Pontypridd ,RUGUN,Principality Building Society Premiership,wl,,,,,,,,,,,,,
Llandovery ,RUGUN,Principality Building Society Premiership,wl,,,,,,,,,,,,,
Aberavon ,RUGUN,Principality Building Society Premiership,wl,,,,,,,,,,,,,
Cross Keys ,RUGUN,Principality Building Society Premiership,wl,,,,,,,,,,,,,
Cardiff RFC ,RUGUN,Principality Building Society Premiership,wl,,,,,,,,,,,,,
Ebbw Vale ,RUGUN,Principality Building Society Premiership,wl,,,,,,,,,,,,,
Newport ,RUGUN,Principality Building Society Premiership,wl,,,,,,,,,,,,,
Llanelli ,RUGUN,Principality Building Society Premiership,wl,,,,,,,,,,,,,
Bedwas ,RUGUN,Principality Building Society Premiership,wl,,,,,,,,,,,,,
Carmarthen Quins ,RUGUN,Principality Building Society Premiership,wl,,,,,,,,,,,,,
Neath ,RUGUN,Principality Building Society Premiership,wl,,,,,,,,,,,,,
Bridgend ,RUGUN,Principality Building Society Premiership,wl,,,,,,,,,,,,,
Swansea ,RUGUN,Swalec National Championship,wl,,,,,,,,,,,,,
Merthyr ,RUGUN,Swalec National Championship,wl,,,,,,,,,,,,,
Beddau ,RUGUN,Swalec National Championship,wl,,,,,,,,,,,,,
Pontypool ,RUGUN,Swalec National Championship,wl,,,,,,,,,,,,,
Bargoed ,RUGUN,Swalec National Championship,wl,,,,,,,,,,,,,
RGC1404 ,RUGUN,Swalec National Championship,wl,,,,,,,,,,,,,
Newbridge ,RUGUN,Swalec National Championship,wl,,,,,,,,,,,,,
Tata Steel ,RUGUN,Swalec National Championship,wl,,,,,,,,,,,,,
Cardiff Met ,RUGUN,Swalec National Championship,wl,,,,,,,,,,,,,
Narberth ,RUGUN,Swalec National Championship,wl,,,,,,,,,,,,,
Bridgend Ath ,RUGUN,Swalec National Championship,wl,,,,,,,,,,,,,
Glynneath ,RUGUN,Swalec National Championship,wl,,,,,,,,,,,,,
Newcastle Emlyn ,RUGUN,Swalec National Championship,wl,,,,,,,,,,,,,
Llanharan ,RUGUN,Swalec National Championship,wl,,,,,,,,,,,,,
Penallta ,RUGUN,Swalec National League Division One East,wl,,,,,,,,,,,,,
Ynysybwl ,RUGUN,Swalec National League Division One East,wl,,,,,,,,,,,,,
Bedlinog ,RUGUN,Swalec National League Division One East,wl,,,,,,,,,,,,,
Blaenavon ,RUGUN,Swalec National League Division One East,wl,,,,,,,,,,,,,
Rhydyfelin ,RUGUN,Swalec National League Division One East,wl,,,,,,,,,,,,,
Senghenydd ,RUGUN,Swalec National League Division One East,wl,,,,,,,,,,,,,
Brynmawr ,RUGUN,Swalec National League Division One East,wl,,,,,,,,,,,,,
Nelson ,RUGUN,Swalec National League Division One East,wl,,,,,,,,,,,,,
Brecon ,RUGUN,Swalec National League Division One East,wl,,,,,,,,,,,,,
Risca ,RUGUN,Swalec National League Division One East,wl,,,,,,,,,,,,,
Blackwood ,RUGUN,Swalec National League Division One East,wl,,,,,,,,,,,,,
Nantyglo ,RUGUN,Swalec National League Division One East,wl,,,,,,,,,,,,,
The Wanderers ,RUGUN,Swalec National League Division One East Central,wl,,,,,,,,,,,,,
Rhiwbina ,RUGUN,Swalec National League Division One East Central,wl,,,,,,,,,,,,,
Ystrad Rhondda ,RUGUN,Swalec National League Division One East Central,wl,,,,,,,,,,,,,
Llanishen ,RUGUN,Swalec National League Division One East Central,wl,,,,,,,,,,,,,
Treorchy ,RUGUN,Swalec National League Division One East Central,wl,,,,,,,,,,,,,
Rumney ,RUGUN,Swalec National League Division One East Central,wl,,,,,,,,,,,,,
St Josephs ,RUGUN,Swalec National League Division One East Central,wl,,,,,,,,,,,,,
Llantwit Fardre ,RUGUN,Swalec National League Division One East Central,wl,,,,,,,,,,,,,
Cardiff HSOB ,RUGUN,Swalec National League Division One East Central,wl,,,,,,,,,,,,,
Heol y Cyw ,RUGUN,Swalec National League Division One East Central,wl,,,,,,,,,,,,,
Mountain Ash ,RUGUN,Swalec National League Division One East Central,wl,,,,,,,,,,,,,
Gilfach Goch ,RUGUN,Swalec National League Division One East Central,wl,,,,,,,,,,,,,
Skewen ,RUGUN,Swalec National League Division One West Central,wl,,,,,,,,,,,,,
Trebanos ,RUGUN,Swalec National League Division One West Central,wl,,,,,,,,,,,,,
Ammanford ,RUGUN,Swalec National League Division One West Central,wl,,,,,,,,,,,,,
Bonymaen ,RUGUN,Swalec National League Division One West Central,wl,,,,,,,,,,,,,
Seven Sisters ,RUGUN,Swalec National League Division One West Central,wl,,,,,,,,,,,,,
Kenfig Hill ,RUGUN,Swalec National League Division One West Central,wl,,,,,,,,,,,,,
Maesteg Harlequins ,RUGUN,Swalec National League Division One West Central,wl,,,,,,,,,,,,,
Ystalyfera ,RUGUN,Swalec National League Division One West Central,wl,,,,,,,,,,,,,
Maesteg ,RUGUN,Swalec National League Division One West Central,wl,,,,,,,,,,,,,
Pencoed ,RUGUN,Swalec National League Division One West Central,wl,,,,,,,,,,,,,
Tondu ,RUGUN,Swalec National League Division One West Central,wl,,,,,,,,,,,,,
Builth Wells ,RUGUN,Swalec National League Division One West Central,wl,,,,,,,,,,,,,
Dunvant ,RUGUN,Swalec National League Division One West,wl,,,,,,,,,,,,,
Kidwelly ,RUGUN,Swalec National League Division One West,wl,,,,,,,,,,,,,
Waunarlwydd ,RUGUN,Swalec National League Division One West,wl,,,,,,,,,,,,,
Felinfoel ,RUGUN,Swalec National League Division One West,wl,,,,,,,,,,,,,
Crymych ,RUGUN,Swalec National League Division One West,wl,,,,,,,,,,,,,
Llangennech ,RUGUN,Swalec National League Division One West,wl,,,,,,,,,,,,,
Llanelli Wanderers ,RUGUN,Swalec National League Division One West,wl,,,,,,,,,,,,,
Gorseinon ,RUGUN,Swalec National League Division One West,wl,,,,,,,,,,,,,
Gowerton ,RUGUN,Swalec National League Division One West,wl,,,,,,,,,,,,,
Whitland ,RUGUN,Swalec National League Division One West,wl,,,,,,,,,,,,,
Loughor ,RUGUN,Swalec National League Division One West,wl,,,,,,,,,,,,,
Tenby Utd ,RUGUN,Swalec National League Division One West,wl,,,,,,,,,,,,,
Nant Conwy ,RUGUN,Swalec National League Division One North,wl,,,,,,,,,,,,,
Llandudno ,RUGUN,Swalec National League Division One North,wl,,,,,,,,,,,,,
Pwllheli ,RUGUN,Swalec National League Division One North,wl,,,,,,,,,,,,,
Bala ,RUGUN,Swalec National League Division One North,wl,,,,,,,,,,,,,
Caernarfon ,RUGUN,Swalec National League Division One North,wl,,,,,,,,,,,,,
Bethesda ,RUGUN,Swalec National League Division One North,wl,,,,,,,,,,,,,
Abergele ,RUGUN,Swalec National League Division One North,wl,,,,,,,,,,,,,
Mold ,RUGUN,Swalec National League Division One North,wl,,,,,,,,,,,,,
Ruthin ,RUGUN,Swalec National League Division One North,wl,,,,,,,,,,,,,
Llangefni ,RUGUN,Swalec National League Division One North,wl,,,,,,,,,,,,,
Dolgellau ,RUGUN,Swalec National League Division One North,wl,,,,,,,,,,,,,
Cobra ,RUGUN,Swalec National League Division One North,wl,,,,,,,,,,,,,
Clontarf ,RUGUN,Ulster Bank All-Ireland League Division One – Section A,ie,,,,,,,,,,,,,
Old Belvedere ,RUGUN,Ulster Bank All-Ireland League Division One – Section A,ie,,,,,,,,,,,,,
UCD ,RUGUN,Ulster Bank All-Ireland League Division One – Section A,ie,,,,,,,,,,,,,
Garryowen ,RUGUN,Ulster Bank All-Ireland League Division One – Section A,ie,,,,,,,,,,,,,
Lansdowne ,RUGUN,Ulster Bank All-Ireland League Division One – Section A,ie,,,,,,,,,,,,,
Galwegians ,RUGUN,Ulster Bank All-Ireland League Division One – Section A,ie,,,,,,,,,,,,,
Terenure College ,RUGUN,Ulster Bank All-Ireland League Division One – Section A,ie,,,,,,,,,,,,,
Cork Constitution ,RUGUN,Ulster Bank All-Ireland League Division One – Section A,ie,,,,,,,,,,,,,
Young Munster ,RUGUN,Ulster Bank All-Ireland League Division One – Section A,ie,,,,,,,,,,,,,
Ballynahinch ,RUGUN,Ulster Bank All-Ireland League Division One – Section A,ie,,,,,,,,,,,,,
Old Wesley ,RUGUN,Ulster Bank All-Ireland League Division One – Section B,ie,,,,,,,,,,,,,
Ballymena ,RUGUN,Ulster Bank All-Ireland League Division One – Section B,ie,,,,,,,,,,,,,
St Mary's College ,RUGUN,Ulster Bank All-Ireland League Division One – Section B,ie,,,,,,,,,,,,,
Buccaneers ,RUGUN,Ulster Bank All-Ireland League Division One – Section B,ie,,,,,,,,,,,,,
Dublin University ,RUGUN,Ulster Bank All-Ireland League Division One – Section B,ie,,,,,,,,,,,,,
Blackrock College ,RUGUN,Ulster Bank All-Ireland League Division One – Section B,ie,,,,,,,,,,,,,
Dolphin ,RUGUN,Ulster Bank All-Ireland League Division One – Section B,ie,,,,,,,,,,,,,
UL Bohemians ,RUGUN,Ulster Bank All-Ireland League Division One – Section B,ie,,,,,,,,,,,,,
Belfast Harlequins ,RUGUN,Ulster Bank All-Ireland League Division One – Section B,ie,,,,,,,,,,,,,
Shannon ,RUGUN,Ulster Bank All-Ireland League Division One – Section B,ie,,,,,,,,,,,,,
SU Agen,RUGUN,Top 14,fr,http://agen-rugby.com,https://twitter.com/agen_rugby,01/12/2010,https://www.facebook.com/pages/Agen-Rugby-Page-Officielle/171118996266435,https://instagram.com/agen_rugby/,,https://plus.google.com/117663218604540677116,https://www.youtube.com/user/agenrugbyofficiel,10/03/11,,https://en.wikipedia.org/wiki/SU_Agen_Lot-et-Garonne,,
Union Bordeaux Bègles,RUGUN,Top 14,fr,http://www.ubbrugby.com/,http://twitter.com/UBBrugby,01/04/2012,https://fr-fr.facebook.com/ubbrugby,,,,,,,https://en.wikipedia.org/wiki/Union_Bordeaux_B%C3%A8gles,,
CA Brive,RUGUN,Top 14,fr,http://cabrive-rugby.com,https://twitter.com/CABCLRUGBY,01/02/2012,,,,,,,,https://en.wikipedia.org/wiki/CA_Brive,,
Castres Olympique,RUGUN,Top 14,fr,http://castres-olympique.com,https://twitter.com/CastresRugby,01/08/2012,,,,,,,,https://en.wikipedia.org/wiki/Castres_Olympique,,
ASM Clermont Auvergne,RUGUN,Top 14,fr,http://www.asm-rugby.com/,https://twitter.com/ASMOfficiel,01/03/2012,,,,https://plus.google.com/113423920155161331096,https://www.youtube.com/user/ASMRugbyOfficiel,28/06/13,,https://en.wikipedia.org/wiki/ASM_Clermont_Auvergne,,
FC Grenoble,RUGUN,Top 14,fr,http://fcrugby.com,https://twitter.com/FCGrugby,01/08/2012,,,,,,,,https://en.wikipedia.org/wiki/FC_Grenoble,,
Montpellier Hérault Rugby,RUGUN,Top 14,fr,http://www.montpellier-rugby.com/,https://twitter.com/MHR_officiel,01/12/2010,https://www.facebook.com/Montpellier.Rugby,,,,https://www.youtube.com/user/montpellierrugby,,,https://en.wikipedia.org/wiki/Montpellier_H%C3%A9rault_Rugby,,
Oyonnax Rugby,RUGUN,Top 14,fr,http://usorugby.com,https://twitter.com/OyonnaxRugby,01/06/2013,,,,,,,,https://en.wikipedia.org/wiki/Oyonnax_Rugby,,
Section Paloise,RUGUN,Top 14,fr,http://section-paloise.fr,https://twitter.com/SectionPaloise,01/06/2012,,,,,,,,https://en.wikipedia.org/wiki/Section_Paloise,,
Racing 92,RUGUN,Top 14,fr,http://racing92.fr,https://twitter.com/racing92,01/10/2009,,https://instagram.com/racing92 ,,,,,,https://en.wikipedia.org/wiki/Racing_92,,
Stade Rochelais,RUGUN,Top 14,fr,http://staderochelais.com,https://twitter.com/ASRofficiel,01/10/2010,,,,,,,,https://en.wikipedia.org/wiki/Atlantique_Stade_Rochelais,,
Stade Français Paris,RUGUN,Top 14,fr,http://stade.fr,https://twitter.com/SFParisRugby,01/01/2012,,,,,,,,https://en.wikipedia.org/wiki/Stade_Fran%C3%A7ais,,
RC Toulonnais,RUGUN,Top 14,fr,http://rctoulon.fr,https://twitter.com/RCTofficiel,01/09/2011,,,,,,,,https://en.wikipedia.org/wiki/RC_Toulonnais,,
Stade Toulousain,RUGUN,Top 14,fr,http://stadetoulousain.fr,https://twitter.com/StadeToulousain,01/03/2011,,,,,,,,https://en.wikipedia.org/wiki/Stade_Toulousain,,
Biarritz,RUGUN,Heineken Cup,fr,http://www.bo-pb.com/,https://twitter.com/BOPBweb,01/07/2011,https://www.facebook.com/pages/BOPB-page-officielle/208217155896387,,,,,,,,,
București Wolves,RUGUN,Heineken Cup,ro,,,,https://www.facebook.com/Bucharest-Wolves-171589956262597/,,,,,,,https://en.wikipedia.org/wiki/Bucure%C8%99ti_Wolves,Arcul de Triumf Stadium ,5500
Calvisano,RUGUN,Heineken Cup,it,,,,,,,,,,,https://en.wikipedia.org/wiki/Rugby_Calvisano,Centro Sportivo San Michele ,4000
Cavalieri Prato,RUGUN,Heineken Cup,it,,,,,,,,,,,https://en.wikipedia.org/wiki/Rugby_Club_I_Cavalieri_Prato,tadio Enrico Chersoni,2500
Stade Montois,RUGUN,Challenge Cup,fr,,,,,,,,,,,https://en.wikipedia.org/wiki/Stade_Montois,Stade Guy Boniface,22000
Bizkaia Gernika RT,RUGUN,Challenge Cup,sp,,,,,,,,,,,https://en.wikipedia.org/wiki/Gernika_RT,Urbieta zelaia,1000
Perpignan,RUGUN,Challenge Cup,fr,,,,,,,,,,,https://en.wikipedia.org/wiki/USA_Perpignan,Stade Aimé Giral,14593
Rovigo,RUGUN,Challenge Cup,it,,,,,,,,,,,https://en.wikipedia.org/wiki/Rugby_Rovigo_Delta,Stadio Comunale Mario Battaglini,6000
Bayonne,RUGUN,Challenge Cup,fr,,,,,,,,,,,https://en.wikipedia.org/wiki/Aviron_Bayonnais,Stade Jean Dauger,16934
Mogliano Rugby,RUGUN,Challenge Cup,it,,,,,,,,,,,https://en.wikipedia.org/wiki/Mogliano_Rugby,Stadio Maurizio Quaggia,2300
Welsh Rugby Union,RUGUN,National,wl,www.wru.co.uk,https://twitter.com/WelshRugbyUnion,,https://www.facebook.com/WelshRugbyUnion,,,,,,,,,
Italian Rugby Union,RUGUN,National,it,www.federugby.it,https://www.twitter.com/federugby,,https://www.facebook.com/federugby,,,,http://www.youtube.com/user/FedRugby,,,,,
Scottish Rugby Union,RUGUN,National,sco,www.scottishrugby.org,https://twitter.com/Scotlandteam,,,,,,,,,,,
French Rugby Union,RUGUN,National,fr,www.ffr.fr,https://twitter.com/FFRugby,,,,,,,,,,,
English Rugby Union,RUGUN,National,en,http://www.rfu.com,,,https://www.facebook.com/OfficialEnglandRugby,,,,,,,,,
Irish Rugby Union,RUGUN,National,ie,www.ieishrugby.ie,https://twitter.com/iefurugby,,,,,,,,,,,
Russian Rugby Union (EN),RUGUN,National,ru,rugby.ru ,https://twitter.com/russiarugby,01/01/11,,,,,,,,,,
Russian Rugby Union (RU),RUGUN,National,ru,rugby.ru ,https://twitter.com/rugbyrussia,01/09/10,,,,,,,,,,
Korea Rugby Union,RUGUN,National,sk,rugby.or.kr,https://twitter.com/KoreaRugbyUnion,01/08/10,,,,,,,,,,
Hong Kong Rugby Union,RUGUN,National,hk,https://twitter.com/HongKongRugby,,,,,,,,,,,,
Uruguay Rugby Union,RUGUN,National,ur,,https://twitter.com/RugbyUruguay,01/07/11,,,,,,,,,,
Japan Rugby Union,RUGUN,National,jp,Rugby-japan.jp,https://twitter.com/JRFURugby,01/06/13,,,,,,,,,,
Kenya Rugby Union,RUGUN,National,ke,,https://twitter.com/OfficialKRU,01/10/10,,,,,,,,,,
Romanian Rugby Union,RUGUN,National,ro,http://frr.ro/,,,https://www.facebook.com/rugbyromania,https://instagram.com/rugbyromania/,,,https://www.youtube.com/user/romanianrugby,,,,,
